0.71103373874426223
0.71438060878567444
0.71724383892204546
0.71976535298673283
0.72167768133225652
0.72285056633473177
0.72354672578495116
0.72341579748447349
0.72211192067741359
0.71908648506692296
0.71475066528636577
0.71044030070698772
0.7077499800944298
0.70710681426260458
0.70802509788016954
0.70787403432682405
0.70281300349957143
0.6937853671466836
0.6874039827064039
0.68768009977381572
0.69402558272904824
0.70190752179921667
0.70269531882808611
0.69004899124235886
0.67502613560438951
0.67519124371040806
0.68353144911513375
0.68430635312481902
0.67951598860217832
0.67784574232206052
0.67841153246548513
0.67764531244751081
0.67711803832404405
0.67672013908821493
0.67536622106255795
0.67376512421315915
0.67187581385341422
0.66958705637341209
0.66701255045174468
0.66422317653146756
0.6612889487792315
0.65829658451154482
0.65529137151201122
0.65237037255388752
0.64957572468356917
0.64707219429403573
0.64495410312199575
0.64349297586037424
0.64285757130176036
0.64348369903762936
0.64555887122186639
0.64943915447567668
0.65483527248509865
0.66226153832359136
0.67234612512381409
0.68608671421684697
0.69856286878641682
0.70580131574706728
0.70681087894191819
0.71288809628917471
0.72636087685140227
0.73455224086680915
0.73990296196469429
0.74523936408552383
0.750798142977398
0.75568941997919015
0.75886544433385528
0.76026272301979891
0.76001525674542458
0.75847456085260501
0.75606473306305955
0.75306287175222697
0.74977866121132319
0.74635780464024615
0.74297940002558316
0.73968655756327972
0.73656802886339856
0.73361421308452313
0.73087280034699798
0.7283171193616067
0.72597365567950944
0.72381421600988616
0.7218537525484483
0.7200692431072766
0.71846776539133617
0.71702911034111161
0.71575586064496743
0.71462775049751859
0.71364359494085516
0.7127797004171641
0.71203436886161586
0.7113842640868937
0.71082687377142306
0.71035141010499059
0.70995020663086306
0.70962591996084778
0.70937144487183812
0.70916960022250697
0.70902248314216898
0.70891154736490625
0.70883092294354866
0.70882250442407291
0.7088009978855041
0.70887697939190819
0.70892369752277851
0.70903877234475321
0.70911246819649687
0.7092242103764177
0.70931752601448561
0.70945542496145697
0.70949860124788733
0.70973169851442863
0.70977710633679347
0.71008869949277775
0.71002237551931302
0.71041436600574359
0.71018787666452898
0.71042699210709792
0.71103373874426223