0.71419760826706613
0.71426882293176308
0.7145218665134736
0.71461729492410486
0.71469501244296707
0.71472913635613278
0.71474634775879764
0.71473781280708448
0.71471462172670197
0.7146698393430202
0.71461247955546203
0.7145337387217009
0.71443966369206879
0.7143199248766956
0.71417671970545715
0.71399569435924704
0.7137759375287096
0.71350665838965255
0.71319475443848912
0.71284147870938397
0.71244505739587294
0.71198684059675066
0.71144987507363444
0.71080761808651705
0.71003245342834642
0.70907347316673575
0.70783906782795214
0.70624386190423349
0.70425321199719848
0.70183535366758343
0.69899952117445419
0.69574403938931106
0.6921142551549424
0.68821029496058084
0.68415054569443967
0.68034442246681337
0.67735559316235461
0.67550133443391669
0.67483753321457896
0.67515186120611359
0.67620816777082227
0.67755654906350982
0.67865407408673994
0.67930157846067263
0.67958167962944227
0.67965918266193648
0.67962927522171301
0.67955654356745754
0.6794565110649764
0.6793385544788707
0.67920034877753321
0.6790438272089101
0.67886442756989607
0.67866088470392505
0.67842803174281507
0.67816159940463283
0.67785547440145311
0.67750268693295157
0.6770959619061182
0.67662609774599325
0.67608513870957543
0.67546306144135648
0.67475263517172568
0.67394528584907754
0.67303651949453458
0.6720215913212757
0.67090072375168508
0.66967430528430172
0.66834796113361106
0.66692672931354058
0.66542042050886241
0.66383697527169461
0.66218918794368786
0.66048608707759793
0.65874262309237142
0.65696976968716592
0.65518574972205801
0.65340365028351544
0.65165109048703695
0.6499448971845736
0.64832195262677628
0.64680938961657386
0.64546645695651395
0.64433855848535426
0.64352956030496933
0.64311660736858078
0.6432591547101163
0.64407221482776023
0.64578959718304851
0.64834908571958083
0.65208180904691093
0.65682691803465243
0.66361125454112468
0.66939693579389115
0.67790329320873588
0.69069605381942245
0.69852513439012442
0.70458105639689117
0.70703070879160612
0.71319117432182533
0.72467707303176876
0.73140996792033408
0.73707677027741281
0.74128589651417953
0.74595130516235864
0.75132071726526806
0.75500384550091748
0.75774354189148296
0.75951998983267666
0.76031834863769787
0.76033803605600303
0.75971090231245786
0.75858503773784447
0.75709080684636398
0.75533564839780321
0.75340857494052182
0.75138072628142849
0.74930371066307233
0.74721760631556755
0.74515019626956325
0.74312365950243642
0.74115078928515898
0.73924341742942112
0.73740648372829298
0.73564233267559664
0.73395282096014403
0.73233924820509855
0.73079925837409576
0.72933260082499773
0.72793837247723492
0.72661522817067836
0.72536102032850724
0.72417461666972127
0.72305393240500349
0.72199715883915061
0.72100242150433735
0.7200685425015958
0.71919405031424577
0.71837777721444085
0.71761811713307111
0.71691380952304851
0.71626339137367334
0.71566554974357488
0.71511874259676977
0.71462147762736561
0.7141720406125921
0.71376871817612142
0.71340960102822715
0.71309278812346744
0.71281614583059261
0.71257748526072273
0.71237450287253767
0.71220486095587399
0.71206617272463457
0.71195602819035042
0.71187200087676006
0.71181171243054875
0.7117728605081739
0.71175319036439455
0.71175058866014163
0.71176304020535963
0.71178870077874645
0.7118258466986398
0.71187293763298909
0.71192856206496591
0.71199149662432171
0.71206067656867011
0.71213513633424363
0.71221405720801434
0.71229669566882303
0.71238247598582505
0.71247079694748505
0.7125611919364212
0.71265312437078077
0.7127462806782634
0.7128401144461759
0.71293444069302936
0.71302859688436215
0.71312254554022148
0.71321543528948061
0.71330742554996229
0.71339744191562304
0.71348586420684157
0.71357140078458248
0.713654636409634
0.71373411521301644
0.71381055183071818
0.71388244121924704
0.71395043876229758
0.71401320241545863
0.71407099423418907
0.71412304102462321
0.71416864382342238
0.71420761141733557
0.71423485713533597
0.71424584441750882
0.71423054260101959
0.71419307575369295
0.71419760826706613