0.70811973509514381
0.70764371256850878
0.70779129952490838
0.70791098484408033
0.70802698566168332
0.70811851117879421
0.70824886764626771
0.70841159140435517
0.70858154922085093
0.70870489239868895
0.70877568680539338
0.70879498323374768
0.70878380651143491
0.70875033894851214
0.70870838572306083
0.7086452468635196
0.70855655880203283
0.70841631970046315
0.70821531675194382
0.70795201766527049
0.7076403952904734
0.70729890308668719
0.70695400899736294
0.70660630768103561
0.70623907147598219
0.70583950796970774
0.70536224107374168
0.70473382744129665
0.70394594861647453
0.7030216548359447
0.7019787159559927
0.70086305752231537
0.69964830459190175
0.69821040411714552
0.69642378932784932
0.69430556256320908
0.69185484135955688
0.68897276811207597
0.68565517682113197
0.68184593051723019
0.67781005522562898
0.67384540724184383
0.66998214807957324
0.66644021476546933
0.66332250901454026
0.66069686538396044
0.65840859606332391
0.65654406361985251
0.65537235843404096
0.6548161207938834
0.65485130933505142
0.65538571319425953
0.6563056522730929
0.65742565040170464
0.65857566549205138
0.65962022264547748
0.66041597803983687
0.66090771917018443
0.66114096633351793
0.66121108795545935
0.66119406229647737
0.66113134823622843
0.66104277629476038
0.66093477827454783
0.66080887190232884
0.66066276999008233
0.66049311987985404
0.66029425714990819
0.66006013643223493
0.65978128009833159
0.6594478144830489
0.65904493568713951
0.65855728940199887
0.65796259667972357
0.65723882930487632
0.6563559652515556
0.65528690272926882
0.65399829203702686
0.65246881317251826
0.65067397232907886
0.64861588241803259
0.64629967561273727
0.64377116216200991
0.64107614725771711
0.63832534043106803
0.63562589435863415
0.63318463383103718
0.63117246015381934
0.62996082686867849
0.62968392205180623
0.63082099357589616
0.63327580452718502
0.63824856718206446
0.64254265420106327
0.65057033362921324
0.66377489160477188
0.67164824924603206
0.67788259336249612
0.67925304802961062
0.68644110655476376
0.7015710063434154
0.70997135277530421
0.71714184756447263
0.7224242435439362
0.72888492412163253
0.73745463542174772
0.74374580503326382
0.74911020474016232
0.75350193888656247
0.75662868452844179
0.75875626564106091
0.75998002268109821
0.76046388867909254
0.76034158673572194
0.7597448070725713
0.75878512784547791
0.75755370872679073
0.75612696149215486
0.75456268310487173
0.75290886569105475
0.75120072618127787
0.74946664050321832
0.74772807069434633
0.74600186708888205
0.74429791358140363
0.7426266665060246
0.7409944225165378
0.73940574116336633
0.73786335414974857
0.73637047196471106
0.73492802654177247
0.73353757680345977
0.73219943646303398
0.73091441521509826
0.72968242332641831
0.72850382880191522
0.72737787469283499
0.72630468718872487
0.72528374846225674
0.72431486271406909
0.72339726398467774
0.72253061662339979
0.72171399068081521
0.72094678344073548
0.72022781962614801
0.71955617857339949
0.71893041218163656
0.71834928014143129
0.71781109721094083
0.71731428391164331
0.71685681223472553
0.7164368192001539
0.71605206535191013
0.71570049622179799
0.71537973183956849
0.71508757360347897
0.71482160958707341
0.71457967517938747
0.71435942366936234
0.71415880248976182
0.71397564888836662
0.71380811729325599
0.71365428333963199
0.71351257119861411
0.71338134675158349
0.71325932051785113
0.71314517242427389
0.71303789237336579
0.71293644478152807
0.71284006378132281
0.71274796170581145
0.7126595361160174
0.7125741702343189
0.71249136553708037
0.71241061718451337
0.71233150104209997
0.71225355484255215
0.7121763613440264
0.71209940876855038
0.71202230877690242
0.71194439954347954
0.71186536751814788
0.71178424673542251
0.71170089395303704
0.71161381507588839
0.71152317814699539
0.71142663186818544
0.71132482791796903
0.7112140704720582
0.71109567618361902
0.71096377320168536
0.7108202849032661
0.71065565148799048
0.71047141287830073
0.71025016060853252
0.70998279509265205
0.70962674662189706
0.70902967973842734
0.70811973509514381