0.99452189536827396	-0.10452846326765371
0.98482820939568783	-0.1020723637116908
0.97403024700118157	-0.0993582234554891
0.9620327864130398	-0.09636886742107445
0.94874026134907563	-0.093088324037452069
0.93405902454277734	-0.089502511003460572
0.9179001360655672	-0.085599979214253191
0.90018266843587869	-0.081372743104197232
0.88083750906974212	-0.076817103920114926
0.85981152407047645	-0.071934643041981633
0.83707202398950986	-0.066732976449911302
0.81261120166528966	-0.061226725097254527
0.78645037430264697	-0.055438183134548631
0.75864361857453211	-0.049397978955537158
0.72928051651610626	-0.043145314394328178
0.69848755308338872	-0.036728180429574028
0.6664279751621941	-0.03020292662114988
0.63329978514246599	-0.023633635280451589
0.59933190587688501	-0.01709068178332154
0.56477847886140575	-0.010649067790463431
0.52991166944345192	-0.0043859847562311106
0.49501332722702551	0.001621958219870755
0.46036603882653798	0.007301671054959465
0.42624420886433151	0.0125867061089343
0.39290572128137558	0.01742014694699507
0.36058464395230289	0.021756627686045749
0.32948551858066261	0.025564305459463772
0.29977925975796049	0.02882509636748468
0.27160098534813237	0.031534955084713698
0.2450495022962213	0.033702623148827063
0.22018839315374611	0.03534804249847244
0.19704838817558329	0.036500404456426147
0.1756306823206957	0.037195621144192233
0.1559109146307272	0.037474360345958913
0.1378434428966982	0.0373795678343323
0.1213656844540684	0.036954925105947063
0.1064022776963743	0.036243185996859911
0.092868957133729987	0.035284627354971558
0.080675890670430225	0.034117401239470907
0.069730666359429011	0.032775927705118113
0.059940836882874327	0.03129030189502733
0.051215559799545667	0.029688480319962171
0.043467593897922027	0.027993374413315852
0.036613973333859143	0.02622585478631034
0.03057697138233351	0.024403871680928411
0.025285088539898561	0.022541679598480548
0.02067251299039638	0.020653023459072599
0.016679179760525589	0.018751003424695791
0.01325122118235815	0.016847124894456451
0.010339220763343	0.01495465962842879
0.0078996578416226215	0.013085367198687241
0.005888343675602291	0.011257732296902729
0.004262772166473445	0.0094893646439346297
0.0029796279054633162	0.0077995821700043103
0.0020181008609303332	0.0061924684842033393
0.001361724608198169	0.0046869246151262697
0.00095459100096787841	0.0032856100513116871
0.00059554446488362936	0.0020498065431590381
0.00027900001113522719	0.00096029109846261897
0	0
7.3247445538020972e-05	-0.00099731379802054016
0.00015635164521871859	-0.002128834008810586
0.00025061415614277479	-0.0034122822176880581
0.00035750123690294158	-0.0048676225328245998
0.00068651392227143243	-0.0064767349526800152
0.001292891570170791	-0.0082486420621485368
0.0021966705192041319	-0.01016827942765524
0.003419055081963716	-0.01223597932562942
0.005006430545150856	-0.0144418517488503
0.007004035414170399	-0.016777509305983061
0.0094589359840922121	-0.01923405859619955
0.012416146838407881	-0.021809045476681801
0.015926763954820039	-0.02449976247367629
0.020045869970451369	-0.027306155326571002
0.02483494097165433	-0.030227898353503011
0.030361208358083081	-0.033265230039821667
0.036697572874956792	-0.03641907296192471
0.043923794797031318	-0.039688029428505439
0.05212536620976678	-0.04306893447020739
0.061392385449753353	-0.046557515791223907
0.071819522318337978	-0.050145315003178932
0.083503461069762142	-0.053822115492207723
0.096541750560091164	-0.057573462888491592
0.1110301920973423	-0.061380715989779677
0.1270595837958198	-0.065221997874412518
0.14471252945241689	-0.069071157539251637
0.1640593260441241	-0.072898479700767876
0.1851535473163429	-0.076671446603366472
0.20802747718981329	-0.080355344079558327
0.23268741336819571	-0.083914796327918567
0.25910936634368847	-0.087314860746860748
0.28723528915825708	-0.090522811621149751
0.31697035150355019	-0.093509555317672452
0.34818154709470078	-0.09625095617820742
0.38069793637991978	-0.098729167784215671
0.41431282687839083	-0.10093281054785699
0.44878783356267299	-0.1028575935512559
0.4838588742824449	-0.10450557238235279
0.51924372557352783	-0.10588469071188721
0.5546507797343212	-0.1070076883682636
0.58978841832349327	-0.1078909005306324
0.62437437445366706	-0.1085532454773023
0.65814446650823688	-0.10901524691461061
0.69086014228471615	-0.1092981466102206
0.72231440275872827	-0.1094234595115947
0.75233585264831659	-0.1094123628694766
0.78079079311170574	-0.109285501243423
0.80758344917652225	-0.1090625946610138
0.8326545578737321	-0.1087623590395967
0.85597863261604301	-0.10840216925293029
0.8775602700926638	-0.1079979499516137
0.89742986195798147	-0.1075639472068471
0.91563905221816788	-0.10711275499995811
0.93225621219544053	-0.1066551247185899
0.94736216120417927	-0.10620007107040449
0.96104627602488035	-0.10575488679189721
0.97340308538164089	-0.1053252676754954
0.98452938788042477	-0.10491546051466499
0.99452189536827396	-0.10452846326765371