0.98768834059513844	-0.15643446504023109
0.98291308167713454	-0.1549522705217678
0.97783661683032985	-0.15338178951279829
0.97244355295328799	-0.15171915431777391
0.96671820381461537	-0.14996054545675791
0.96064468190766639	-0.1481021553521995
0.95420694915376503	-0.14614033006017721
0.94738896855033194	-0.1440714275828491
0.94017476230523911	-0.14189203151998939
0.93254856590238633	-0.13959890145992479
0.92449495480603394	-0.13718906564886041
0.91599902566302693	-0.1346597850736061
0.90704652855356938	-0.1320087335072766
0.89762408887733314	-0.1292339274060226
0.88771937398316281	-0.12633388816396521
0.87732133243118537	-0.1233075997885355
0.86642038351245476	-0.1201546700448997
0.85500867414925907	-0.1168752854995868
0.84308028090623677	-0.1134703688365287
0.8306314649158596	-0.10994155235881491
0.81766088343231402	-0.1062912856380038
0.80416980981623876	-0.1025228797196195
0.79016234800308105	-0.098640514965540133
0.77564560016281625	-0.094649339816188491
0.76062983556467789	-0.090555466573379928
0.74512862461711216	-0.086365969491037295
0.72915891586627279	-0.082088946583485672
0.71274107804589426	-0.077733545260033204
0.69589892971958167	-0.0733098453253129
0.67865967013843742	-0.068828908432822813
0.66105377714419433	-0.06430273878809363
0.64311485746843688	-0.059744201623997163
0.62487945398088329	-0.055166879160401222
0.60638675074790949	-0.050585106467784011
0.58767829001031235	-0.046013749641104079
0.56879761655539141	-0.041468077022366247
0.54978987471447871	-0.036963654951163237
0.53070139309848263	-0.032516155128436981
0.5115792443210454	-0.028141160773769588
0.49247078501245728	-0.023853992475452002
0.47342318236719089	-0.019669576480222391
0.45448298449266189	-0.015602141946974129
0.43569565634754293	-0.011665144987957119
0.41710516339029691	-0.0078710979511181015
0.39875359688919548	-0.0042313597860175241
0.38068082486675842	-0.00075599841546732398
0.36292415777255221	0.0025461711821996641
0.3455181138972947	0.0056677905072267873
0.32849422550193019	0.0086031086000156465
0.31188081983050481	0.011347661619202649
0.29570298209411278	0.01389867727449364
0.27998244049290871	0.016254705257966851
0.26473757235615192	0.018415643400083781
0.24998347653817821	0.02038294260731742
0.2357319787766454	0.02215902426820612
0.2219917911149335	0.023747518531455888
0.2087686364447216	0.025153031343862119
0.19606540685103649	0.026380925088001401
0.18388237348713399	0.0274374115435304
0.17221736427833531	0.028329162083103591
0.1610659936545121	0.029063345705736581
0.15042188402255349	0.02964758256177305
0.140276861969267	0.030089332640663161
0.13062122027089529	0.030396545217817459
0.1214439058611997	0.030577121008641839
0.1127327318848033	0.030638621123753599
0.10447458645099771	0.030588862455721469
0.096655612981423361	0.030435189359413081
0.089261394854340897	0.030184653893727761
0.08227711002836624	0.029844210514973601
0.075687680688937595	0.029420470497063232
0.069477939665922903	0.028919371578472328
0.063632750578157732	0.02834644735143264
0.058136984384131049	0.027707940900650471
0.052975920611625343	0.027008013756825568
0.048135097173267263	0.026251199480681251
0.043600220714020761	0.025442908588876521
0.03935784336462942	0.024585918412815329
0.035395017125462093	0.023683231881228929
0.031698978352125602	0.022739281585748099
0.028258094052297119	0.021756072716925891
0.025061066092148969	0.0207367764871354
0.02209741371020179	0.019683912745600041
0.019357659239906809	0.018599185971928989
0.016832754798445568	0.01748531347449056
0.014515565421594019	0.016342590458388428
0.012397302119431131	0.015176511307367749
0.010472771997472241	0.01398722361206799
0.008737564583924582	0.012776479111773801
0.0071821328710915244	0.01155376644141805
0.0058008108700272048	0.01032373020706513
0.004593137189845253	0.0090866747743946052
0.003558317525489877	0.007846518877046179
0.002687359605685502	0.0066162903857777226
0.001921599131194661	0.0054323827079969869
0.0014630954262038151	0.0042013123149829794
0.0010587437806350089	0.0030402072238956339
0.00068124769983065594	0.0019562185074137842
0.0003288754042261209	0.00094437332051212973
0	0
2.0951691165907791e-05	-0.00099978048922615441
4.3400300633377179e-05	-0.002070991475399595
6.7449473054660613e-05	-0.0032185787120785452
9.3209535046281174e-05	-0.0044478068052448659
0.0001488507987101219	-0.0057603097613649337
0.00051128469569067584	-0.0071229058732484463
0.00095945338997328834	-0.0085620634950062616
0.0015603961269938489	-0.01006129870480052
0.002326690898410005	-0.011611000025895719
0.0032603040885120739	-0.013207685974889111
0.0043617685602765676	-0.01485120966044272
0.005637908251617846	-0.016538904686567699
0.007100735055864513	-0.018264697012803959
0.0087549848981637261	-0.02002828354682723
0.010605642122669319	-0.021831128614243821
0.012662763413468271	-0.023670722692838899
0.01493322574817324	-0.025548989851074469
0.017426473869162139	-0.027466141724674039
0.020152048286131301	-0.02942348601722904
0.023120695471814629	-0.031421864943126522
0.026344140548527038	-0.033461753815532028
0.02983406678737896	-0.035544840377226793
0.033603982881685319	-0.037670853166084019
0.037667131066879057	-0.039840937379094991
0.042037159269249683	-0.042056607237268458
0.046729333218839923	-0.044317133923092153
0.051758808125393983	-0.04662267479487063
0.057140869973645932	-0.048973820877794498
0.062891836556381975	-0.051369309776407669
0.069027813401581081	-0.053808556130772713
0.075565060207328213	-0.056290599729347628
0.082519959823407332	-0.05881381217793448
0.089908757894047509	-0.061376159658223163
0.097747344647342055	-0.063975390244763092
0.10605116800290031	-0.066608800959196454
0.1148351136624681	-0.069273009291965795
0.12411310852594221	-0.07196459014496763
0.1338981061393219	-0.074679445076639442
0.14420179508221179	-0.077413013573911463
0.15503425399600651	-0.080160726488784084
0.16640390308814881	-0.082917307412272379
0.17831712862621499	-0.08567729343684681
0.19077805794350849	-0.088435010918060553
0.20378835270343751	-0.091184468311429206
0.2173469194370384	-0.093919671984638048
0.23144973866672211	-0.096634472951187628
0.24608964652450471	-0.099322726565036018
0.26125614431573502	-0.10197847559492799
0.27693532053136538	-0.1045956743442225
0.29310966572052838	-0.1071687410748725
0.30975806696708408	-0.1096923407285727
0.32685581013274501	-0.11216135815353689
0.34437457500463092	-0.1145712851153675
0.3622825954762468	-0.1169178470971627
0.38054476880079668	-0.1191973757096176
0.39912288665398438	-0.1214067249323329
0.41797592113395349	-0.1235431500324136
0.43706033095728319	-0.1256044470956468
0.45633043596005501	-0.12758892999825081
0.47573883822969659	-0.12949534681858649
0.495236870833416	-0.1313228461346935
0.51477506263964956	-0.13307104818612669
0.53430364049442514	-0.13473988971465789
0.55377302020212016	-0.13632964500523029
0.57313429781351855	-0.1378409024030498
0.59233972825465808	-0.1392745160112395
0.61134317979467201	-0.14063155080666409
0.63010054953876682	-0.14191330802741531
0.64857014144488701	-0.1431213125932638
0.66671300404190259	-0.14425718959515479
0.6844931998531546	-0.14532278954545941
0.7018780332251473	-0.1463201109510234
0.71883821789396485	-0.14725126903866209
0.73534798622855069	-0.1481184899313191
0.75138513970702681	-0.14892417904734639
0.76693105688008489	-0.14967080066724539
0.78197064545765893	-0.15036088931947689
0.79649224997919077	-0.15099708476979881
0.81048752492406095	-0.151582088784805
0.82395127541485547	-0.15211860893910281
0.83688126724430711	-0.15260940073403659
0.84927802048032996	-0.1530572087818744
0.86114458658785598	-0.15346474086871209
0.87248631396366894	-0.15383470496130741
0.88331061367627162	-0.15416970522944459
0.89362671872856803	-0.1544723292375115
0.90344545362343265	-0.15474502580188809
0.91277900432345604	-0.154990199683611
0.92164070377819041	-0.15521009739917119
0.93004482331035554	-0.15540691004271651
0.93800638325270769	-0.15558263804730241
0.9455409715328974	-0.15573922155079109
0.95266458243896512	-0.1558784502419287
0.95939346747995913	-0.15600201234031799
0.96574400419091111	-0.15611139980651509
0.97173257482182263	-0.15620809357221119
0.97737546589558799	-0.15629338192551709
0.98268877618899952	-0.15636847963722869
0.98768834059513844	-0.15643446504023109